<?xml version="1.0" encoding="UTF-8" standalone="no"?>
<!-- Created with Inkscape (http://www.inkscape.org/) -->
<svg xmlns:inkscape="http://www.inkscape.org/namespaces/inkscape" xmlns:rdf="http://www.w3.org/1999/02/22-rdf-syntax-ns#" xmlns="http://www.w3.org/2000/svg" xmlns:xlink="http://www.w3.org/1999/xlink" xmlns:ns1="http://sozi.baierouge.fr" xmlns:cc="http://creativecommons.org/ns#" xmlns:sodipodi="http://sodipodi.sourceforge.net/DTD/sodipodi-0.dtd" xmlns:dc="http://purl.org/dc/elements/1.1/" id="svg2" xml:space="preserve" viewBox="0 0 40.725 43.286" version="1.1" inkscape:version="0.91 r13725">
  <defs id="defs6">
    <linearGradient id="linearGradient24" y2="-7529.7" gradientUnits="userSpaceOnUse" x2="-3327.1" gradientTransform="matrix(.5964 -.5332 .5332 .5964 6020.1 2728.6)" y1="-7529.7" x1="-3344.5">
      <stop id="stop26" style="stop-color:#d82624" offset="0"/>
      <stop id="stop28" style="stop-color:#7a1614" offset="1"/>
    </linearGradient>
    <linearGradient id="linearGradient46" y2="-7530.5" gradientUnits="userSpaceOnUse" x2="-3338.2" gradientTransform="matrix(.59672 -.5328 .5328 .59672 6014 2728.2)" y1="-7530.5" x1="-3342">
      <stop id="stop48" style="stop-color:#ff6966" offset="0"/>
      <stop id="stop50" style="stop-color:#b7201e" offset="1"/>
    </linearGradient>
    <linearGradient id="linearGradient64" y2="-7482.1" gradientUnits="userSpaceOnUse" x2="-3333.5" gradientTransform="matrix(.59792 -.53152 .53152 .59792 5993.6 2727)" y1="-7482.1" x1="-3336">
      <stop id="stop66" style="stop-color:#d8413f" offset="0"/>
      <stop id="stop68" style="stop-color:#a71e1c" offset="1"/>
    </linearGradient>
    <linearGradient id="linearGradient82" y2="-7504.1" gradientUnits="userSpaceOnUse" x2="-3326.8" gradientTransform="matrix(.59792 -.53152 .53152 .59792 5993.6 2727)" y1="-7504.1" x1="-3329.2">
      <stop id="stop84" style="stop-color:#b6201e" offset="0"/>
      <stop id="stop86" style="stop-color:#891917" offset="1"/>
    </linearGradient>
    <linearGradient id="linearGradient118" y2="-7547.4" gradientUnits="userSpaceOnUse" x2="-3327.6" gradientTransform="matrix(.596 -.5336 .5336 .596 6026.8 2729)" y1="-7547.4" x1="-3344.9">
      <stop id="stop120" style="stop-color:#852800" offset="0"/>
      <stop id="stop122" style="stop-color:#6b1900" offset="1"/>
    </linearGradient>
    <linearGradient id="linearGradient136" y2="-7548.4" gradientUnits="userSpaceOnUse" x2="-3327.6" gradientTransform="matrix(.596 -.5336 .5336 .596 6026.8 2729)" y1="-7548.4" x1="-3344.9">
      <stop id="stop138" style="stop-color:#ff8229" offset="0"/>
      <stop id="stop140" style="stop-color:#c43f16" offset="1"/>
    </linearGradient>
    <linearGradient id="linearGradient154" y2="-7529.5" gradientUnits="userSpaceOnUse" x2="-3333" gradientTransform="matrix(.59576 -.53392 .53392 .59576 6031.3 2729.2)" y1="-7529.5" x1="-3340.1">
      <stop id="stop156" style="stop-color:#ff8229" offset="0"/>
      <stop id="stop158" style="stop-color:#c43f16" offset="1"/>
    </linearGradient>
    <linearGradient id="linearGradient174" y2="-7518.2" gradientUnits="userSpaceOnUse" x2="-3331.6" gradientTransform="matrix(.59592 -.53376 .53376 .59592 6028.6 2729)" y1="-7518.2" x1="-3340.9">
      <stop id="stop176" style="stop-color:#d82624" offset="0"/>
      <stop id="stop178" style="stop-color:#7a1614" offset="1"/>
    </linearGradient>
    <linearGradient id="linearGradient194" y2="-7554.2" gradientUnits="userSpaceOnUse" x2="-3338.8" gradientTransform="matrix(.59424 -.5356 .5356 .59424 6056.9 2730.6)" y1="-7554.2" x1="-3341.6">
      <stop id="stop196" style="stop-color:#ff6966" offset="0"/>
      <stop id="stop198" style="stop-color:#b7201e" offset="1"/>
    </linearGradient>
    <linearGradient id="linearGradient212" y2="-7529.1" gradientUnits="userSpaceOnUse" x2="-3334.5" gradientTransform="matrix(.59576 -.53392 .53392 .59576 6030.7 2729.2)" y1="-7529.1" x1="-3339.6">
      <stop id="stop214" style="stop-color:#ffd129" offset="0"/>
      <stop id="stop216" style="stop-color:#c47316" offset="1"/>
    </linearGradient>
    <linearGradient id="linearGradient230" y2="-7531.4" gradientUnits="userSpaceOnUse" x2="-3332.8" gradientTransform="matrix(.59688 -.53272 .53272 .59688 6012.1 2728.1)" y1="-7531.4" x1="-3342.2">
      <stop id="stop232" style="stop-color:#852800" offset="0"/>
      <stop id="stop234" style="stop-color:#6b1900" offset="1"/>
    </linearGradient>
    <linearGradient id="linearGradient248" y2="-7552.2" gradientUnits="userSpaceOnUse" x2="-3328.2" gradientTransform="matrix(.59576 -.53392 .53392 .59576 6031.6 2729.2)" y1="-7552.2" x1="-3345.4">
      <stop id="stop250" style="stop-color:#852800" offset="0"/>
      <stop id="stop252" style="stop-color:#6b1900" offset="1"/>
    </linearGradient>
    <linearGradient id="linearGradient266" y2="-7549.4" gradientUnits="userSpaceOnUse" x2="-3328.2" gradientTransform="matrix(.59576 -.53392 .53392 .59576 6031.6 2729.2)" y1="-7549.4" x1="-3345.3">
      <stop id="stop268" style="stop-color:#852800" offset="0"/>
      <stop id="stop270" style="stop-color:#6b1900" offset="1"/>
    </linearGradient>
    <linearGradient id="linearGradient284" y2="-7513.5" gradientUnits="userSpaceOnUse" x2="-3325.7" gradientTransform="matrix(.59784 -.5316 .5316 .59784 5995.5 2727.2)" y1="-7513.5" x1="-3342.9">
      <stop id="stop286" style="stop-color:#852800" offset="0"/>
      <stop id="stop288" style="stop-color:#6b1900" offset="1"/>
    </linearGradient>
    <linearGradient id="linearGradient302" y2="-7545.7" gradientUnits="userSpaceOnUse" x2="-3327.6" gradientTransform="matrix(.59624 -.53336 .53336 .59624 6022.6 2728.7)" y1="-7545.7" x1="-3344.8">
      <stop id="stop304" style="stop-color:#852800" offset="0"/>
      <stop id="stop306" style="stop-color:#6b1900" offset="1"/>
    </linearGradient>
    <linearGradient id="linearGradient320" y2="-7551.8" gradientUnits="userSpaceOnUse" x2="-3328.2" gradientTransform="matrix(.59576 -.53392 .53392 .59576 6031.6 2729.2)" y1="-7551.8" x1="-3345.3">
      <stop id="stop322" style="stop-color:#852800" offset="0"/>
      <stop id="stop324" style="stop-color:#6b1900" offset="1"/>
    </linearGradient>
    <linearGradient id="linearGradient338" y2="-7550.9" gradientUnits="userSpaceOnUse" x2="-3328.2" gradientTransform="matrix(.59576 -.53392 .53392 .59576 6031.6 2729.2)" y1="-7550.9" x1="-3345.4">
      <stop id="stop340" style="stop-color:#852800" offset="0"/>
      <stop id="stop342" style="stop-color:#6b1900" offset="1"/>
    </linearGradient>
    <linearGradient id="linearGradient356" y2="-7542.8" gradientUnits="userSpaceOnUse" x2="-3327.6" gradientTransform="matrix(.59624 -.53336 .53336 .59624 6022.6 2728.7)" y1="-7542.8" x1="-3344.8">
      <stop id="stop358" style="stop-color:#852800" offset="0"/>
      <stop id="stop360" style="stop-color:#6b1900" offset="1"/>
    </linearGradient>
    <linearGradient id="linearGradient374" y2="-7548.1" gradientUnits="userSpaceOnUse" x2="-3328.2" gradientTransform="matrix(.59576 -.53392 .53392 .59576 6031.6 2729.2)" y1="-7548.1" x1="-3345.4">
      <stop id="stop376" style="stop-color:#852800" offset="0"/>
      <stop id="stop378" style="stop-color:#6b1900" offset="1"/>
    </linearGradient>
    <linearGradient id="linearGradient392" y2="-7547.6" gradientUnits="userSpaceOnUse" x2="-3327.6" gradientTransform="matrix(.59624 -.53336 .53336 .59624 6022.6 2728.7)" y1="-7547.6" x1="-3344.8">
      <stop id="stop394" style="stop-color:#852800" offset="0"/>
      <stop id="stop396" style="stop-color:#6b1900" offset="1"/>
    </linearGradient>
    <linearGradient id="linearGradient410" y2="-7560.7" gradientUnits="userSpaceOnUse" x2="-3328.2" gradientTransform="matrix(.59576 -.53392 .53392 .59576 6031.6 2729.2)" y1="-7560.7" x1="-3345.4">
      <stop id="stop412" style="stop-color:#852800" offset="0"/>
      <stop id="stop414" style="stop-color:#6b1900" offset="1"/>
    </linearGradient>
    <linearGradient id="linearGradient428" y2="-7506.7" gradientUnits="userSpaceOnUse" x2="-3331.9" gradientTransform="matrix(.59632 -.53328 .53328 .59632 6021.3 2728.6)" y1="-7506.7" x1="-3339.5">
      <stop id="stop430" style="stop-color:#f2b557" offset="0"/>
      <stop id="stop432" style="stop-color:#a16b1a" offset="1"/>
    </linearGradient>
    <linearGradient id="linearGradient446" y2="-16056" gradientUnits="userSpaceOnUse" x2="16582" gradientTransform="matrix(-.79952 .0272 -.0272 -.79952 12850 -13256)" y1="-16056" x1="16575">
      <stop id="stop448" style="stop-color:#f2b557" offset="0"/>
      <stop id="stop450" style="stop-color:#a16b1a" offset="1"/>
    </linearGradient>
  </defs>
  <g id="g10" transform="matrix(1.25 0 0 -1.25 0 43.286)">
    <g id="g12">
      <g id="g14">
        <g id="g16">
          <g id="g22">
            <path id="path30" style="fill-rule:evenodd;fill:url(#linearGradient24)" d="m27.801 30 0.359-0.2-0.117-0.121 1.477-2.039-6.559-7.32-0.481-1c-0.292-0.879-0.347-1.774-0.16-2.68 0.215-0.988 0.188-1.879-0.078-2.68-0.242-0.64-0.668-1.292-1.281-1.96l-9.84-11.04c-0.133-0.265-0.387-0.496-0.758-0.679-0.695-0.375-1.59-0.375-2.683 0-1.52 0.531-2.891 1.414-4.118 2.64-1.386 1.118-2.414 2.383-3.082 3.797-0.503 1.043-0.613 1.934-0.32 2.68l0.602 0.801 9.879 11.039c0.613 0.695 1.226 1.176 1.839 1.441 0.747 0.375 1.641 0.508 2.68 0.399 0.906-0.106 1.774 0.043 2.602 0.441 0.426 0.188 0.746 0.387 0.961 0.602l6.558 7.32 2.16-1.242 0.121 0.121 0.239-0.32z" inkscape:connector-curvature="0"/>
          </g>
        </g>
      </g>
      <path id="path32" style="fill-rule:evenodd;fill:#c9200a" d="m21.883 19.078c-0.27-0.317-1.082 0.109-2.442 1.281-1.304 1.199-1.828 1.961-1.558 2.281 0.133 0.133 0.426 0.067 0.879-0.199 0.48-0.27 1-0.641 1.558-1.121 0.535-0.481 0.961-0.949 1.282-1.399 0.32-0.457 0.414-0.734 0.281-0.843z" inkscape:connector-curvature="0"/>
      <path id="path34" style="fill-rule:evenodd;fill:#940000" d="m17.762 23.519c0.426 0.188 0.746 0.387 0.961 0.602l6.558 7.32 0.52-0.281c-4.586-5.332-7.067-8.121-7.438-8.36-0.48-0.293-0.777-0.453-0.883-0.48-0.292-0.082-1.027-0.106-2.199-0.082-0.828 0.027-1.574-0.106-2.238-0.399-0.453-0.187-0.801-0.414-1.043-0.679l-10.957-12.282-0.402-0.8c-0.161-0.719 0.027-1.586 0.562-2.598l-0.723 1.238c-0.503 1.043-0.613 1.934-0.32 2.68l0.602 0.801 9.879 11.039c0.613 0.695 1.226 1.176 1.839 1.441 0.747 0.375 1.641 0.508 2.68 0.399 0.906-0.106 1.774 0.043 2.602 0.441z" inkscape:connector-curvature="0"/>
      <g id="g36">
        <g id="g38">
          <g id="g44">
            <path id="path52" style="fill-rule:evenodd;fill:url(#linearGradient46)" d="m12.203 20.238c0.453 0.508 1.078 0.828 1.879 0.961 0.852 0.187 1.547 0.066 2.078-0.36 0.348-0.265 0.336-0.535-0.039-0.8-0.851-0.559-1.441-1.028-1.758-1.399l-11.64-13c-0.375 0.32-0.696 0.719-0.961 1.199-0.16 0.293-0.254 0.614-0.282 0.961v0.438l10.723 12z" inkscape:connector-curvature="0"/>
          </g>
        </g>
      </g>
      <g id="g54">
        <g id="g56">
          <g id="g62">
            <path id="path70" style="fill-rule:evenodd;fill:url(#linearGradient64)" d="m24.883 29.199c0.238-0.559 0.652-1.055 1.238-1.481l-4.961-5.558c-0.64 0.48-0.984 1.054-1.039 1.718l4.762 5.321z" inkscape:connector-curvature="0"/>
          </g>
        </g>
      </g>
      <g id="g72">
        <g id="g74">
          <g id="g80">
            <path id="path88" style="fill-rule:evenodd;fill:url(#linearGradient82)" d="m20.121 17.558c0.293 0.348 0.641 0.188 1.039-0.48l0.121-0.317c0.082-0.32 0.094-0.695 0.039-1.121-0.05-0.988-0.465-1.867-1.238-2.64l-10.602-11.84-0.398 0.078c-0.16 0.027-0.348 0.121-0.562 0.281l-0.278 0.199c7.254 7.895 11.106 12.203 11.559 12.922 0.453 0.692 0.562 1.664 0.32 2.918z" inkscape:connector-curvature="0"/>
          </g>
        </g>
      </g>
      <path id="path90" style="fill-rule:evenodd;fill:#e3240b" d="m16.883 17.558c-0.137-0.133-0.297-0.211-0.481-0.238-0.214 0-0.386 0.066-0.519 0.199-0.16 0.106-0.242 0.266-0.242 0.481-0.028 0.214 0.027 0.386 0.16 0.519 0.347 0.348 0.695 0.359 1.039 0.039 0.137-0.133 0.215-0.293 0.242-0.48 0-0.211-0.066-0.383-0.199-0.52z" inkscape:connector-curvature="0"/>
      <path id="path92" style="fill-rule:evenodd;fill:#e3240b" d="m18.32 18.238c-0.132-0.16-0.277-0.16-0.437 0-0.137 0.137-0.137 0.269 0 0.402 0.105 0.188 0.238 0.199 0.398 0.039s0.172-0.304 0.039-0.441z" inkscape:connector-curvature="0"/>
      <path id="path94" style="fill-rule:evenodd;fill:#e3240b" d="m17.602 20.519c-0.133-0.133-0.282-0.148-0.442-0.039-0.133 0.133-0.133 0.281 0 0.441 0.137 0.133 0.27 0.133 0.402 0 0.184-0.109 0.2-0.242 0.04-0.402z" inkscape:connector-curvature="0"/>
      <path id="path96" style="fill-rule:evenodd;fill:#e3240b" d="m18.961 15c-0.133-0.133-0.266-0.133-0.399 0-0.109 0.105-0.109 0.226 0 0.359 0.051 0.055 0.118 0.082 0.2 0.082 0.078 0 0.133-0.027 0.16-0.082 0.133-0.078 0.144-0.199 0.039-0.359z" inkscape:connector-curvature="0"/>
      <path id="path98" style="fill-rule:evenodd;fill:#e3240b" d="m21.641 13.761c-0.188-0.269-0.387-0.32-0.598-0.16-0.188 0.133-0.16 0.344 0.078 0.637 0.082 0.109 0.188 0.176 0.32 0.203 0.133 0.023 0.227 0.012 0.282-0.043 0.183-0.184 0.16-0.398-0.082-0.637z" inkscape:connector-curvature="0"/>
      <path id="path100" style="fill-rule:evenodd;fill:#e3240b" d="m2.961 4.601c-0.188-0.242-0.414-0.254-0.68-0.043-0.238 0.242-0.254 0.481-0.039 0.723 0.211 0.211 0.438 0.226 0.68 0.039 0.266-0.266 0.281-0.508 0.039-0.719z" inkscape:connector-curvature="0"/>
      <path id="path102" style="fill-rule:evenodd;fill:#e3240b" d="m7.363 1.718c-0.109-0.16-0.242-0.16-0.402 0-0.133 0.137-0.149 0.282-0.039 0.442 0.16 0.133 0.305 0.133 0.441 0 0.133-0.133 0.133-0.282 0-0.442z" inkscape:connector-curvature="0"/>
      <path id="path104" style="fill-rule:evenodd;fill:#940000" d="m19.641 24.558 3.839-1.918c0.454-0.48 0.481-1 0.082-1.562l-0.839-1.239c-0.856 0.293-1.668 0.813-2.442 1.559-0.48 0.48-0.851 1.027-1.121 1.641l-0.277 0.761 0.758 0.758z" inkscape:connector-curvature="0"/>
      <path id="path106" style="fill-rule:evenodd;fill:#940000" d="m10.32 20.839c0.242 0.321 0.52 0.602 0.84 0.84 0.723-1.84 2.094-3.668 4.121-5.48 2.266-2.078 4.321-3.266 6.16-3.559l-0.8-1.039-9.36-10.441c-1.254 0-2.078 0.054-2.48 0.16-1.199 0.293-2.598 1.094-4.199 2.398-2.239 1.84-3.536 3.977-3.879 6.403l9.597 10.718z" inkscape:connector-curvature="0"/>
      <g id="g108">
        <g id="g110">
          <g id="g116">
            <path id="path124" style="fill-rule:evenodd;fill:url(#linearGradient118)" d="m11.48 22.039c0.723-1.786 2.094-3.614 4.122-5.481 2.238-2 4.293-3.183 6.16-3.558-0.16-0.293-0.426-0.629-0.801-1l-9.52-10.68c-2.027 0-4.214 1.051-6.558 3.16-2.27 2.027-3.547 4.039-3.84 6.039l9.598 10.719 0.839 0.801z" inkscape:connector-curvature="0"/>
          </g>
        </g>
      </g>
      <g id="g126">
        <g id="g128">
          <g id="g134">
            <path id="path142" style="fill-rule:evenodd;fill:url(#linearGradient136)" d="m9.801 20.281h0.48l-0.32-0.922c-0.133-0.399-0.375-0.852-0.719-1.359l0.278 0.121c0.269 0.078 0.562 0.105 0.882 0.078 0.532-0.028 0.946 0.066 1.239 0.281l-0.52-1.602c-0.16-0.398-0.359-0.707-0.601-0.918 0.082 0.051 0.187 0.118 0.32 0.2 0.269 0.133 0.523 0.215 0.762 0.238 0.375 0 0.695 0.082 0.96 0.242l-0.199-0.441c-0.136-0.348-0.281-0.614-0.441-0.801l-0.36-0.398c0.399 0.105 0.68 0.199 0.84 0.281 0.16 0.051 0.344 0.066 0.559 0.039l-0.481-1.242c0.106 0.215 0.497 0.336 1.161 0.363 0.746 0.051 1.308 0.172 1.679 0.359l-0.32-1.562-0.199-0.559 0.281 0.16c0.238 0.133 0.547 0.2 0.918 0.2 0.586-0.028 1 0.027 1.242 0.16-0.105-0.504-0.242-0.813-0.402-0.918l-0.199-0.203 1.601 0.32v-0.359c0-0.293-0.054-0.532-0.16-0.719l-0.281-0.442 0.601 0.161 0.598 0.082-0.039-0.282c-0.02-0.144-0.059-0.257-0.121-0.339 0.238 0.234 0.476 0.457 0.722 0.66 0.344 0.238 0.708 0.441 1.079 0.601l-0.079-0.242-9.121-10.199c-2.027 0-4.214 1.051-6.558 3.16-2.27 2.027-3.547 4.039-3.84 6.039l8.758 9.762z" inkscape:connector-curvature="0"/>
          </g>
        </g>
      </g>
      <g id="g144">
        <g id="g146">
          <g id="g152">
            <path id="path160" style="fill-rule:evenodd;fill:url(#linearGradient154)" d="m23.082 20.441c-0.668 0.16-1.453 0.625-2.359 1.398-0.961 0.879-1.508 1.774-1.641 2.68l4.84 5.441c0.293-0.722 0.894-1.496 1.801-2.32 0.906-0.828 1.73-1.32 2.48-1.48l-5.121-5.719z" inkscape:connector-curvature="0"/>
          </g>
        </g>
      </g>
      <path id="path162" style="fill-rule:evenodd;fill:#940000" d="m26.602 30.441 2.96-2.801-1.242-1.359c-0.691 0.293-1.519 0.906-2.48 1.84-0.613 0.586-1.024 1.132-1.238 1.64l-0.122 0.559 0.641 0.758 1.481-0.637z" inkscape:connector-curvature="0"/>
      <g id="g164">
        <g id="g166">
          <g id="g172">
            <path id="path180" style="fill-rule:evenodd;fill:url(#linearGradient174)" d="m30.363 27.078c-0.242-0.266-0.722-0.266-1.441 0-0.719 0.297-1.469 0.789-2.242 1.48-0.774 0.695-1.332 1.387-1.68 2.082-0.371 0.664-0.438 1.145-0.199 1.438 0.265 0.269 0.761 0.254 1.48-0.039 0.696-0.266 1.426-0.746 2.199-1.438 0.774-0.695 1.348-1.387 1.723-2.082 0.371-0.691 0.426-1.172 0.16-1.441z" inkscape:connector-curvature="0"/>
          </g>
        </g>
      </g>
      <path id="path182" style="fill-rule:evenodd;fill:#940000" d="m25.121 31.078c0.055-0.426 0.149-0.785 0.281-1.078-0.746 1.011-0.949 1.707-0.601 2.078 0.215 0.215 0.613 0.242 1.199 0.082-0.613-0.055-0.906-0.414-0.879-1.082z" inkscape:connector-curvature="0"/>
      <g id="g184">
        <g id="g186">
          <g id="g192">
            <path id="path200" style="fill-rule:evenodd;fill:url(#linearGradient194)" d="m25.801 31.16c0.828-0.774 1.176-1.332 1.039-1.68-0.133-0.348-0.453-0.215-0.957 0.398-0.375 0.481-0.535 0.868-0.481 1.161 0.051 0.265 0.184 0.308 0.399 0.121z" inkscape:connector-curvature="0"/>
          </g>
        </g>
      </g>
      <g id="g202">
        <g id="g204">
          <g id="g210">
            <path id="path218" style="fill-rule:evenodd;fill:url(#linearGradient212)" d="m24.762 27.359c0.535-0.371 0.718-0.973 0.558-1.801-0.132-0.637-0.414-1.238-0.84-1.797-0.613-0.801-1.21-1.308-1.8-1.523-0.774-0.293-1.465-0.078-2.078 0.64-0.454 0.563-0.625 1.122-0.52 1.68 0.106 0.481 0.465 1.043 1.078 1.68 1.387 1.441 2.586 1.816 3.602 1.121z" inkscape:connector-curvature="0"/>
          </g>
        </g>
      </g>
      <g id="g220">
        <g id="g222">
          <g id="g228">
            <path id="path236" style="fill-rule:evenodd;fill:url(#linearGradient230)" d="m8.68 12.398c-1.067-0.051-1.864-0.465-2.399-1.238-0.453-0.586-0.761-1.133-0.918-1.641-0.269 0.082-0.414 0.375-0.441 0.879-0.027 0.348-0.016 0.602 0.039 0.762l0.281 0.64-0.359-0.16c-0.27-0.16-0.442-0.32-0.52-0.48-0.347-0.481-0.601-1.028-0.761-1.641-0.161-0.586-0.149-1.066 0.039-1.441-0.504 0.535-0.614 1.254-0.321 2.16 0.348 1.226 0.989 2 1.922 2.32 0.504 0.16 0.801 0.363 0.879 0.602l0.039-0.36c0-0.195-0.027-0.375-0.078-0.539 0.473 0.633 1.02 1.039 1.641 1.219 0.504 0.16 1.16 0.199 1.957 0.121 0.668-0.082 1.121-0.016 1.363 0.199 0.293 0.239 0.492 0.465 0.598 0.68l0.082 0.238v-1.238c-0.11-0.988-0.414-1.895-0.922-2.719-0.504-0.828-1.172-1.48-2-1.961-0.399-0.242-0.758-0.402-1.078-0.48l1.679-0.32c0.481-0.028 0.813 0.144 1 0.519l-0.32-0.918c-0.293-0.668-0.652-1.16-1.082-1.48-0.613-0.453-1.332-0.657-2.16-0.602l-1.078 0.242c0.32-0.054 0.879 0.051 1.679 0.317 0.801 0.297 1.282 0.64 1.442 1.043-0.321 0.238-0.695 0.359-1.121 0.359-0.242 0.027-0.535 0.105-0.879 0.238l-0.403 0.203c0.375 0.184 1.028 0.719 1.961 1.598 0.934 0.879 1.52 1.785 1.762 2.719-0.402 0.137-0.906 0.187-1.523 0.16z" inkscape:connector-curvature="0"/>
          </g>
        </g>
      </g>
      <g id="g238">
        <g id="g240">
          <g id="g246">
            <path id="path254" style="fill-rule:evenodd;fill:url(#linearGradient248)" d="m15.762 7.761c-0.188-0.242-0.414-0.386-0.68-0.441s-0.469-0.016-0.602 0.121c-0.16 0.133-0.226 0.332-0.199 0.598 0.028 0.265 0.149 0.507 0.36 0.722 0.214 0.211 0.441 0.36 0.679 0.438 0.242 0.054 0.442 0.015 0.602-0.121 0.16-0.133 0.226-0.332 0.199-0.598s-0.144-0.508-0.359-0.719z" inkscape:connector-curvature="0"/>
          </g>
        </g>
      </g>
      <g id="g256">
        <g id="g258">
          <g id="g264">
            <path id="path272" style="fill-rule:evenodd;fill:url(#linearGradient266)" d="m17.84 8.96c-0.266-0.292-0.477-0.386-0.637-0.281-0.137 0.133-0.066 0.348 0.199 0.641 0.266 0.293 0.465 0.375 0.598 0.238 0.137-0.105 0.082-0.305-0.16-0.598z" inkscape:connector-curvature="0"/>
          </g>
        </g>
      </g>
      <g id="g274">
        <g id="g276">
          <g id="g282">
            <path id="path290" style="fill-rule:evenodd;fill:url(#linearGradient284)" d="m12 4.398c-0.16-0.184-0.344-0.293-0.559-0.32-0.214-0.024-0.386 0.027-0.519 0.16-0.133 0.137-0.199 0.308-0.199 0.523 0 0.211 0.078 0.399 0.238 0.559 0.16 0.187 0.348 0.293 0.559 0.32 0.214 0.055 0.386 0.012 0.523-0.121 0.344-0.348 0.332-0.719-0.043-1.121z" inkscape:connector-curvature="0"/>
          </g>
        </g>
      </g>
      <g id="g292">
        <g id="g294">
          <g id="g300">
            <path id="path308" style="fill-rule:evenodd;fill:url(#linearGradient302)" d="m13.68 4.558c-0.293-0.293-0.532-0.359-0.719-0.199-0.188 0.187-0.149 0.426 0.121 0.719 0.293 0.32 0.531 0.386 0.719 0.203 0.215-0.16 0.176-0.403-0.121-0.723z" inkscape:connector-curvature="0"/>
          </g>
        </g>
      </g>
      <g id="g310">
        <g id="g312">
          <g id="g318">
            <path id="path326" style="fill-rule:evenodd;fill:url(#linearGradient320)" d="m13.762 9.921c-0.133-0.16-0.309-0.253-0.52-0.281-0.215 0-0.387 0.067-0.519 0.199-0.137 0.106-0.203 0.266-0.203 0.481s0.066 0.398 0.203 0.558c0.32 0.321 0.664 0.348 1.039 0.082 0.32-0.32 0.32-0.667 0-1.039z" inkscape:connector-curvature="0"/>
          </g>
        </g>
      </g>
      <g id="g328">
        <g id="g330">
          <g id="g336">
            <path id="path344" style="fill-rule:evenodd;fill:url(#linearGradient338)" d="m8.441 15.679c-0.347-0.347-0.625-0.414-0.839-0.199-0.215 0.215-0.188 0.508 0.078 0.879 0.347 0.32 0.629 0.375 0.84 0.16 0.136-0.078 0.187-0.199 0.16-0.359-0.024-0.188-0.106-0.348-0.239-0.481z" inkscape:connector-curvature="0"/>
          </g>
        </g>
      </g>
      <g id="g346">
        <g id="g348">
          <g id="g354">
            <path id="path362" style="fill-rule:evenodd;fill:url(#linearGradient356)" d="m6 14.64c-0.184-0.215-0.359-0.265-0.52-0.16-0.132 0.133-0.105 0.305 0.082 0.52 0.239 0.214 0.415 0.265 0.52 0.16 0.133-0.133 0.106-0.305-0.082-0.52z" inkscape:connector-curvature="0"/>
          </g>
        </g>
      </g>
      <g id="g364">
        <g id="g366">
          <g id="g372">
            <path id="path380" style="fill-rule:evenodd;fill:url(#linearGradient374)" d="m8.922 18.238c-0.16-0.16-0.281-0.199-0.36-0.117-0.109 0.105-0.082 0.238 0.079 0.398 0.132 0.133 0.254 0.176 0.359 0.121 0.082-0.082 0.055-0.215-0.078-0.402z" inkscape:connector-curvature="0"/>
          </g>
        </g>
      </g>
      <g id="g382">
        <g id="g384">
          <g id="g390">
            <path id="path398" style="fill-rule:evenodd;fill:url(#linearGradient392)" d="m3.203 11.921c-0.215-0.242-0.387-0.296-0.523-0.16-0.106 0.106-0.051 0.278 0.16 0.52 0.215 0.238 0.375 0.304 0.48 0.199 0.133-0.133 0.094-0.32-0.117-0.559z" inkscape:connector-curvature="0"/>
          </g>
        </g>
      </g>
      <g id="g400">
        <g id="g402">
          <g id="g408">
            <path id="path416" style="fill-rule:evenodd;fill:url(#linearGradient410)" d="m11.801 2.199c-0.348-0.348-0.613-0.426-0.801-0.239-0.211 0.211-0.16 0.481 0.16 0.801 0.293 0.344 0.563 0.426 0.801 0.239 0.187-0.188 0.133-0.454-0.16-0.801z" inkscape:connector-curvature="0"/>
          </g>
        </g>
      </g>
      <g id="g418">
        <g id="g420">
          <g id="g426">
            <path id="path434" style="fill-rule:evenodd;fill:url(#linearGradient428)" d="m26.281 31.718 1.719 2.801 4.562-4.039-2.761-2.199c-0.586 0.027-1.321 0.453-2.199 1.277-0.719 0.695-1.161 1.254-1.321 1.68v0.48z" inkscape:connector-curvature="0"/>
          </g>
        </g>
      </g>
      <g id="g436">
        <g id="g438">
          <g id="g444">
            <path id="path452" style="fill-rule:evenodd;fill:url(#linearGradient446)" d="m32.242 31.441c0.32-0.508 0.414-0.856 0.278-1.043-0.157-0.16-0.52-0.105-1.079 0.16-0.558 0.297-1.16 0.723-1.8 1.281-0.641 0.586-1.121 1.133-1.438 1.641-0.348 0.531-0.441 0.879-0.281 1.039 0.133 0.188 0.48 0.133 1.039-0.16 0.559-0.266 1.16-0.691 1.801-1.281 0.64-0.559 1.133-1.106 1.48-1.637z" inkscape:connector-curvature="0"/>
          </g>
        </g>
      </g>
    </g>
  </g>
<metadata><rdf:RDF><cc:Work><dc:format>image/svg+xml</dc:format><dc:type rdf:resource="http://purl.org/dc/dcmitype/StillImage"/><cc:license rdf:resource="http://creativecommons.org/licenses/publicdomain/"/><dc:publisher><cc:Agent rdf:about="http://openclipart.org/"><dc:title>Openclipart</dc:title></cc:Agent></dc:publisher></cc:Work><cc:License rdf:about="http://creativecommons.org/licenses/publicdomain/"><cc:permits rdf:resource="http://creativecommons.org/ns#Reproduction"/><cc:permits rdf:resource="http://creativecommons.org/ns#Distribution"/><cc:permits rdf:resource="http://creativecommons.org/ns#DerivativeWorks"/></cc:License></rdf:RDF></metadata></svg>
